^D:\FREE HOURS\2018\NOVEMBER\DAY06\GENETICALGORITHM\GENETICALGORITHM\RELEASE\MAIN.OBJ
/OUT:"D:\FREE HOURS\2018\NOVEMBER\DAY06\GENETICALGORITHM\RELEASE\GENETICALGORITHM.EXE" /NOLOGO KERNEL32.LIB USER32.LIB GDI32.LIB WINSPOOL.LIB COMDLG32.LIB ADVAPI32.LIB SHELL32.LIB OLE32.LIB OLEAUT32.LIB UUID.LIB ODBC32.LIB ODBCCP32.LIB /MANIFEST /MANIFESTUAC:"level='asInvoker' uiAccess='false'" /manifest:embed /DEBUG:FULL /PDB:"D:\FREE HOURS\2018\NOVEMBER\DAY06\GENETICALGORITHM\RELEASE\GENETICALGORITHM.PDB" /OPT:REF /OPT:ICF /LTCG:incremental /TLBID:1 /DYNAMICBASE /NXCOMPAT /IMPLIB:"D:\FREE HOURS\2018\NOVEMBER\DAY06\GENETICALGORITHM\RELEASE\GENETICALGORITHM.LIB" /MACHINE:X86 /SAFESEH RELEASE\MAIN.OBJ
^D:\HW\AI\DAY06\GENETICALGORITHM\GENETICALGORITHM\RELEASE\MAIN.OBJ
/OUT:"D:\HW\AI\DAY06\GENETICALGORITHM\RELEASE\GENETICALGORITHM.EXE" /NOLOGO KERNEL32.LIB USER32.LIB GDI32.LIB WINSPOOL.LIB COMDLG32.LIB ADVAPI32.LIB SHELL32.LIB OLE32.LIB OLEAUT32.LIB UUID.LIB ODBC32.LIB ODBCCP32.LIB /MANIFEST /MANIFESTUAC:"level='asInvoker' uiAccess='false'" /manifest:embed /DEBUG:FULL /PDB:"D:\HW\AI\DAY06\GENETICALGORITHM\RELEASE\GENETICALGORITHM.PDB" /OPT:REF /OPT:ICF /LTCG:incremental /TLBID:1 /DYNAMICBASE /NXCOMPAT /IMPLIB:"D:\HW\AI\DAY06\GENETICALGORITHM\RELEASE\GENETICALGORITHM.LIB" /MACHINE:X86 /SAFESEH RELEASE\MAIN.OBJ
^D:\HW\AI\DAY06\GENETICALGORITHM\GENETICALGORITHM\RELEASE\GA.OBJ|D:\HW\AI\DAY06\GENETICALGORITHM\GENETICALGORITHM\RELEASE\MAIN.OBJ|D:\HW\AI\DAY06\GENETICALGORITHM\GENETICALGORITHM\RELEASE\SUDOKU.OBJ
/OUT:"D:\HW\AI\DAY06\GENETICALGORITHM\RELEASE\GENETICALGORITHM.EXE" /NOLOGO KERNEL32.LIB USER32.LIB GDI32.LIB WINSPOOL.LIB COMDLG32.LIB ADVAPI32.LIB SHELL32.LIB OLE32.LIB OLEAUT32.LIB UUID.LIB ODBC32.LIB ODBCCP32.LIB /MANIFEST /MANIFESTUAC:"level='asInvoker' uiAccess='false'" /manifest:embed /DEBUG:FULL /PDB:"D:\HW\AI\DAY06\GENETICALGORITHM\RELEASE\GENETICALGORITHM.PDB" /OPT:REF /OPT:ICF /LTCG:incremental /TLBID:1 /DYNAMICBASE /NXCOMPAT /IMPLIB:"D:\HW\AI\DAY06\GENETICALGORITHM\RELEASE\GENETICALGORITHM.LIB" /MACHINE:X86 /SAFESEH RELEASE\GA.OBJRELEASE\MAIN.OBJRELEASE\SUDOKU.OBJ
